[
    {
      "id": 1,
      "name": "AK-47 Neon Rider",
      "price": 25,
      "image": "https://steamcdn-a.akamaihd.net/apps/730/icons/econ/default_generated/weapon_ak47_cu_ak_neon_rider_light_large.9209192b514c4ec98146b4747dec8ce407a977c8.png",
      "code": "441356",
      "color": "Violet"
    },
    {
      "id": 2,
      "name": "AK-47 The Empress",
      "price": 70,
      "image": "https://steamcdn-a.akamaihd.net/apps/730/icons/econ/default_generated/weapon_ak47_gs_ak47_empress_light_large.f81d0b07dca381635c89f74bcdb6b64a6da6e81c.png",
      "code": "141435",
      "color": "Gold"
    },
    {
        "id": 3,
        "name": "AK-47 Fuel Injector",
        "price": 70,
        "image": "https://steamcdn-a.akamaihd.net/apps/730/icons/econ/default_generated/weapon_ak47_gs_ak47_supercharged_light_large.8a0d53e84b7049366a3e3dbb25d29f473d76dceb.png",
        "code": "657889",
        "color": "Yellow"
    },
    {
        "id": 4,
        "name": "AK-47 Bloodsport",
        "price": 60,
        "image": "https://steamcdn-a.akamaihd.net/apps/730/icons/econ/default_generated/weapon_ak47_gs_ak47_bloodsport_light_large.40f076f6b92e08acc37860923533aa9768795b2b.png",
        "code": "445521",
        "color": "Red"
    },
    {
        "id": 5,
        "name": "AK-47 Wasteland Rebel",
        "price": 85,
        "image": "https://steamcdn-a.akamaihd.net/apps/730/icons/econ/default_generated/weapon_ak47_cu_tribute_ak47_light_large.f0ccfeea8a432a82cf4fb7f0411a724dbb43459a.png",
        "code": "134125",
        "color": "Brown"
    },
    {
        "id": 6,
        "name": "AK-47 Gold Arabesque",
        "price": 700,
        "image": "https://steamcdn-a.akamaihd.net/apps/730/icons/econ/default_generated/weapon_ak47_gs_ak47_gold_arabesque_light_large.0d1b0b2bfcafe8d214837077367e7dd42394822e.png",
        "code": "009876",
        "color": "Gold"
    },
    {
        "id": 7,
        "name": "AK-47 Frontside Misty",
        "price": 122,
        "image": "https://steamcdn-a.akamaihd.net/apps/730/icons/econ/default_generated/weapon_ak47_cu_ak47_winter_sport_light_large.785a08aecd996dcffc6f38373fdc73697e601a6a.png",
        "code": "667554",
        "color": "Blue"
    },
    {
        "id": 8,
        "name": "AK-47 Redline",
        "price": 70,
        "image": "https://steamcdn-a.akamaihd.net/apps/730/icons/econ/default_generated/weapon_ak47_cu_ak47_cobra_light_large.7494bfdf4855fd4e6a2dbd983ed0a243c80ef830.png",
        "code": "112312",
        "color": "Black"
    },
    {
        "id": 9,
        "name": "AK-47 Aquamarine Revenge",
        "price": 115,
        "image": "https://steamcdn-a.akamaihd.net/apps/730/icons/econ/default_generated/weapon_ak47_cu_ak47_courage_alt_light_large.27e4e7d38dc2ce36ffe86bd6ec65d6f525751eaa.png",
        "code": "442351",
        "color": "Blue"
    },
    {
        "id": 10,
        "name": "AK-47 Asiimov",
        "price": 235,
        "image": "https://steamcdn-a.akamaihd.net/apps/730/icons/econ/default_generated/weapon_ak47_cu_ak47_asiimov_light_large.665fc3b83c8046398787a57d2ef7a9d938244820.png",
        "code": "551424",
        "color": "Orange"
    }

  ]